%YAML 1.1
%TAG !u! tag:unity3d.com,2011:
--- !u!1045 &1
EditorBuildSettings:
  m_ObjectHideFlags: 0
  serializedVersion: 2
  m_Scenes:
  - enabled: 1
    path: Assets/Scenes/CowBoyGame.unity
    guid: 8d017e69a1e387442aca6642cdd28d0b
  m_configObjects: {}
