%YAML 1.1
%TAG !u! tag:unity3d.com,2011:
--- !u!162 &1
EditorUserSettings:
  m_ObjectHideFlags: 0
  serializedVersion: 4
  m_ConfigSettings:
    RecentlyUsedScenePath-0:
      value: 200b1b330b5c1d423d1c032815374c5f35160e2f3f6707233e2c0920add3373dece225a6c43b29392a4cfa320d2a18
      flags: 0
    RecentlyUsedScenePath-1:
      value: 224247031146467d1f0b096242071f3112011d24383d34356d0b1832e1e87408e3e43da6c2223e31290eea7321260032e2060c45e305031f08
      flags: 0
    RecentlyUsedScenePath-2:
      value: 22424703114646680e0b0227036c6c111b07142f1f2b233e2867083debf42d
      flags: 0
    RecentlyUsedScenePath-3:
      value: 22424703114646680e0b0227036c721f1919342b222c2322633c133af6f9
      flags: 0
    vcSharedLogLevel:
      value: 0d5e400f0650
      flags: 0
  m_VCAutomaticAdd: 1
  m_VCDebugCom: 0
  m_VCDebugCmd: 0
  m_VCDebugOut: 0
  m_SemanticMergeMode: 2
  m_VCShowFailedCheckout: 1
  m_VCOverwriteFailedCheckoutAssets: 1
  m_VCProjectOverlayIcons: 1
  m_VCHierarchyOverlayIcons: 1
  m_VCOtherOverlayIcons: 1
  m_VCAllowAsyncUpdate: 1
